 _______        _    _____                             
|__   __|      | |  |  __ \                            
   | | __ _ ___| | _| |__) |   _ _ __  _ __   ___ _ __ 
   | |/ _` / __| |/ /  _  / | | | '_ \| '_ \ / _ \ '__|
   | | (_| \__ \   <| | \ \ |_| | | | | | | |  __/ |   
   |_|\__,_|___/_|\_\_|  \_\__,_|_| |_|_| |_|\___|_|   v0.0.1
